StartFontMetrics 4.1
FontName Code128CHRTall
FullName Code 128C HR Tall
Notice Copyright 1997 by Elfring Soft Fonts, All rights reserved.
EncodingScheme FontSpecific
FamilyName Code 128C HR Tall
Weight Regular
Version (Macromedia Fontographer 4.1 4/13/98)
Characters 152
ItalicAngle 0.0
Ascender 725
Descender -204
UnderlineThickness 14
UnderlinePosition -90
IsFixedPitch false
FontBBox 0 -212 437 1088
StartCharMetrics 295
C 0 ; WX 500 ; N .notdef ; B 63 0 437 725 ;
C 1 ; WX 500 ; N .notdef ; B 63 0 437 725 ;
C 2 ; WX 500 ; N .notdef ; B 63 0 437 725 ;
C 3 ; WX 500 ; N .notdef ; B 63 0 437 725 ;
C 4 ; WX 500 ; N .notdef ; B 63 0 437 725 ;
C 5 ; WX 500 ; N .notdef ; B 63 0 437 725 ;
C 6 ; WX 500 ; N .notdef ; B 63 0 437 725 ;
C 7 ; WX 500 ; N .notdef ; B 63 0 437 725 ;
C 8 ; WX 500 ; N .notdef ; B 63 0 437 725 ;
C 9 ; WX 500 ; N .notdef ; B 63 0 437 725 ;
C 10 ; WX 500 ; N .notdef ; B 63 0 437 725 ;
C 11 ; WX 500 ; N .notdef ; B 63 0 437 725 ;
C 12 ; WX 500 ; N .notdef ; B 63 0 437 725 ;
C 13 ; WX 500 ; N .notdef ; B 63 0 437 725 ;
C 14 ; WX 500 ; N .notdef ; B 63 0 437 725 ;
C 15 ; WX 500 ; N .notdef ; B 63 0 437 725 ;
C 16 ; WX 500 ; N .notdef ; B 63 0 437 725 ;
C 17 ; WX 500 ; N .notdef ; B 63 0 437 725 ;
C 18 ; WX 500 ; N .notdef ; B 63 0 437 725 ;
C 19 ; WX 500 ; N .notdef ; B 63 0 437 725 ;
C 20 ; WX 500 ; N .notdef ; B 63 0 437 725 ;
C 21 ; WX 500 ; N .notdef ; B 63 0 437 725 ;
C 22 ; WX 500 ; N .notdef ; B 63 0 437 725 ;
C 23 ; WX 500 ; N .notdef ; B 63 0 437 725 ;
C 24 ; WX 500 ; N .notdef ; B 63 0 437 725 ;
C 25 ; WX 500 ; N .notdef ; B 63 0 437 725 ;
C 26 ; WX 500 ; N .notdef ; B 63 0 437 725 ;
C 27 ; WX 500 ; N .notdef ; B 63 0 437 725 ;
C 28 ; WX 500 ; N .notdef ; B 63 0 437 725 ;
C 29 ; WX 500 ; N .notdef ; B 63 0 437 725 ;
C 30 ; WX 500 ; N .notdef ; B 63 0 437 725 ;
C 31 ; WX 500 ; N .notdef ; B 63 0 437 725 ;
C 32 ; WX 299 ; N space ; B 0 -209 282 1088 ;
C 33 ; WX 299 ; N exclam ; B 0 -209 282 1088 ;
C 34 ; WX 299 ; N quotedbl ; B 0 -209 244 1088 ;
C 35 ; WX 299 ; N numbersign ; B 0 -209 279 1088 ;
C 36 ; WX 299 ; N dollar ; B 0 -209 278 1088 ;
C 37 ; WX 299 ; N percent ; B 0 -209 284 1088 ;
C 38 ; WX 299 ; N ampersand ; B 0 -212 284 1088 ;
C 39 ; WX 299 ; N quotesingle ; B 0 -209 278 1088 ;
C 40 ; WX 299 ; N parenleft ; B 0 -209 281 1088 ;
C 41 ; WX 299 ; N parenright ; B 0 -209 282 1088 ;
C 42 ; WX 299 ; N asterisk ; B 0 -209 281 1088 ;
C 43 ; WX 299 ; N plus ; B 0 -209 282 1088 ;
C 44 ; WX 299 ; N comma ; B 0 -203 244 1088 ;
C 45 ; WX 299 ; N hyphen ; B 0 -203 279 1088 ;
C 46 ; WX 299 ; N period ; B 0 -209 278 1088 ;
C 47 ; WX 299 ; N slash ; B 0 -203 284 1088 ;
C 48 ; WX 299 ; N zero ; B 0 -212 284 1088 ;
C 49 ; WX 299 ; N one ; B 0 -209 278 1088 ;
C 50 ; WX 299 ; N two ; B 0 -205 281 1088 ;
C 51 ; WX 299 ; N three ; B 0 -209 282 1088 ;
C 52 ; WX 299 ; N four ; B 0 -209 281 1088 ;
C 53 ; WX 299 ; N five ; B 0 -209 282 1088 ;
C 54 ; WX 299 ; N six ; B 0 -203 244 1088 ;
C 55 ; WX 299 ; N seven ; B 0 -203 279 1088 ;
C 56 ; WX 299 ; N eight ; B 0 -209 278 1088 ;
C 57 ; WX 299 ; N nine ; B 0 -203 284 1088 ;
C 58 ; WX 299 ; N colon ; B 0 -212 284 1088 ;
C 59 ; WX 299 ; N semicolon ; B 0 -209 278 1088 ;
C 60 ; WX 299 ; N less ; B 0 -205 281 1088 ;
C 61 ; WX 299 ; N equal ; B 0 -209 282 1088 ;
C 62 ; WX 299 ; N greater ; B 0 -209 281 1088 ;
C 63 ; WX 299 ; N question ; B 0 -209 282 1088 ;
C 64 ; WX 299 ; N at ; B 0 -209 271 1088 ;
C 65 ; WX 299 ; N A ; B 0 -209 279 1088 ;
C 66 ; WX 299 ; N B ; B 0 -209 278 1088 ;
C 67 ; WX 299 ; N C ; B 0 -209 284 1088 ;
C 68 ; WX 299 ; N D ; B 0 -212 284 1088 ;
C 69 ; WX 299 ; N E ; B 0 -209 278 1088 ;
C 70 ; WX 299 ; N F ; B 0 -209 281 1088 ;
C 71 ; WX 299 ; N G ; B 0 -209 282 1088 ;
C 72 ; WX 299 ; N H ; B 0 -209 281 1088 ;
C 73 ; WX 299 ; N I ; B 0 -209 282 1088 ;
C 74 ; WX 299 ; N J ; B 0 -203 271 1088 ;
C 75 ; WX 299 ; N K ; B 0 -203 279 1088 ;
C 76 ; WX 299 ; N L ; B 0 -209 278 1088 ;
C 77 ; WX 299 ; N M ; B 0 -203 277 1088 ;
C 78 ; WX 299 ; N N ; B 0 -212 284 1088 ;
C 79 ; WX 299 ; N O ; B 0 -209 278 1088 ;
C 80 ; WX 299 ; N P ; B 0 -205 281 1088 ;
C 81 ; WX 299 ; N Q ; B 0 -209 282 1088 ;
C 82 ; WX 299 ; N R ; B 0 -209 281 1088 ;
C 83 ; WX 299 ; N S ; B 0 -212 282 1088 ;
C 84 ; WX 299 ; N T ; B 0 -212 243 1088 ;
C 85 ; WX 299 ; N U ; B 0 -212 279 1088 ;
C 86 ; WX 299 ; N V ; B 0 -212 278 1088 ;
C 87 ; WX 299 ; N W ; B 0 -212 284 1088 ;
C 88 ; WX 299 ; N X ; B 0 -212 278 1088 ;
C 89 ; WX 299 ; N Y ; B 0 -212 278 1088 ;
C 90 ; WX 299 ; N Z ; B 0 -212 281 1088 ;
C 91 ; WX 299 ; N bracketleft ; B 0 -212 282 1088 ;
C 92 ; WX 299 ; N backslash ; B 0 -212 281 1088 ;
C 93 ; WX 299 ; N bracketright ; B 0 -209 282 1088 ;
C 94 ; WX 299 ; N asciicircum ; B 0 -209 271 1088 ;
C 95 ; WX 299 ; N underscore ; B 0 -209 279 1088 ;
C 96 ; WX 299 ; N grave ; B 0 -209 278 1088 ;
C 97 ; WX 299 ; N a ; B 0 -209 284 1088 ;
C 98 ; WX 299 ; N b ; B 0 -212 284 1088 ;
C 99 ; WX 299 ; N c ; B 0 -209 278 1088 ;
C 100 ; WX 299 ; N d ; B 0 -209 281 1088 ;
C 101 ; WX 299 ; N e ; B 0 -209 282 1088 ;
C 102 ; WX 299 ; N f ; B 0 -209 281 1088 ;
C 103 ; WX 299 ; N g ; B 0 -209 282 1088 ;
C 104 ; WX 299 ; N h ; B 0 -205 243 1088 ;
C 105 ; WX 299 ; N i ; B 0 -205 279 1088 ;
C 106 ; WX 299 ; N j ; B 0 -209 278 1088 ;
C 107 ; WX 299 ; N k ; B 0 -205 284 1088 ;
C 108 ; WX 299 ; N l ; B 0 -212 284 1088 ;
C 109 ; WX 299 ; N m ; B 0 -209 278 1088 ;
C 110 ; WX 299 ; N n ; B 0 -205 274 1088 ;
C 111 ; WX 299 ; N o ; B 0 -209 282 1088 ;
C 112 ; WX 299 ; N p ; B 0 -209 281 1088 ;
C 113 ; WX 299 ; N q ; B 0 -209 282 1088 ;
C 114 ; WX 299 ; N r ; B 0 -209 244 1088 ;
C 115 ; WX 299 ; N s ; B 0 -209 279 1088 ;
C 116 ; WX 299 ; N t ; B 0 -209 278 1088 ;
C 117 ; WX 299 ; N u ; B 0 -209 284 1088 ;
C 118 ; WX 299 ; N v ; B 0 -212 284 1088 ;
C 119 ; WX 299 ; N w ; B 0 -209 278 1088 ;
C 120 ; WX 299 ; N x ; B 0 -209 281 1088 ;
C 121 ; WX 299 ; N y ; B 0 -209 282 1088 ;
C 122 ; WX 299 ; N z ; B 0 -209 281 1088 ;
C 123 ; WX 299 ; N braceleft ; B 0 0 244 1088 ;
C 124 ; WX 299 ; N bar ; B 0 0 190 1088 ;
C 125 ; WX 299 ; N braceright ; B 0 0 244 1088 ;
C 126 ; WX 381 ; N asciitilde ; B 0 0 353 1088 ;
C 127 ; WX 500 ; N .notdef ; B 63 0 437 725 ;
C 128 ; WX 500 ; N .notdef ; B 63 0 437 725 ;
C 129 ; WX 500 ; N .notdef ; B 63 0 437 725 ;
C 130 ; WX 500 ; N .notdef ; B 63 0 437 725 ;
C 131 ; WX 500 ; N .notdef ; B 63 0 437 725 ;
C 132 ; WX 500 ; N .notdef ; B 63 0 437 725 ;
C 133 ; WX 500 ; N .notdef ; B 63 0 437 725 ;
C 134 ; WX 500 ; N .notdef ; B 63 0 437 725 ;
C 135 ; WX 500 ; N .notdef ; B 63 0 437 725 ;
C 136 ; WX 500 ; N .notdef ; B 63 0 437 725 ;
C 137 ; WX 500 ; N .notdef ; B 63 0 437 725 ;
C 138 ; WX 500 ; N .notdef ; B 63 0 437 725 ;
C 139 ; WX 500 ; N .notdef ; B 63 0 437 725 ;
C 140 ; WX 500 ; N .notdef ; B 63 0 437 725 ;
C 141 ; WX 500 ; N .notdef ; B 63 0 437 725 ;
C 142 ; WX 500 ; N .notdef ; B 63 0 437 725 ;
C 143 ; WX 500 ; N .notdef ; B 63 0 437 725 ;
C 144 ; WX 500 ; N .notdef ; B 63 0 437 725 ;
C 145 ; WX 500 ; N .notdef ; B 63 0 437 725 ;
C 146 ; WX 500 ; N .notdef ; B 63 0 437 725 ;
C 147 ; WX 500 ; N .notdef ; B 63 0 437 725 ;
C 148 ; WX 500 ; N .notdef ; B 63 0 437 725 ;
C 149 ; WX 500 ; N .notdef ; B 63 0 437 725 ;
C 150 ; WX 500 ; N .notdef ; B 63 0 437 725 ;
C 151 ; WX 500 ; N .notdef ; B 63 0 437 725 ;
C 152 ; WX 500 ; N .notdef ; B 63 0 437 725 ;
C 153 ; WX 500 ; N .notdef ; B 63 0 437 725 ;
C 154 ; WX 500 ; N .notdef ; B 63 0 437 725 ;
C 155 ; WX 500 ; N .notdef ; B 63 0 437 725 ;
C 156 ; WX 500 ; N .notdef ; B 63 0 437 725 ;
C 157 ; WX 500 ; N .notdef ; B 63 0 437 725 ;
C 158 ; WX 500 ; N .notdef ; B 63 0 437 725 ;
C 159 ; WX 500 ; N .notdef ; B 63 0 437 725 ;
C 160 ; WX 500 ; N .notdef ; B 63 0 437 725 ;
C 161 ; WX 299 ; N exclamdown ; B 0 -209 282 1088 ;
C 162 ; WX 299 ; N cent ; B 0 -209 271 1088 ;
C 163 ; WX 299 ; N sterling ; B 0 -209 279 1088 ;
C 164 ; WX 299 ; N currency ; B 0 -209 278 1088 ;
C 165 ; WX 299 ; N yen ; B 0 -209 284 1088 ;
C 166 ; WX 299 ; N brokenbar ; B 0 -212 284 1088 ;
C 167 ; WX 299 ; N section ; B 0 -209 278 1088 ;
C 168 ; WX 299 ; N dieresis ; B 0 -209 281 1088 ;
C 169 ; WX 299 ; N copyright ; B 0 -209 282 1088 ;
C 170 ; WX 299 ; N ordfeminine ; B 0 -209 281 1088 ;
C 171 ; WX 299 ; N guillemotleft ; B 0 0 271 1088 ;
C 172 ; WX 299 ; N logicalnot ; B 0 0 271 1088 ;
C 173 ; WX 500 ; N .notdef ; B 63 0 437 725 ;
C 174 ; WX 299 ; N registered ; B 0 0 271 1088 ;
C 175 ; WX 299 ; N overscore ; B 0 0 0 86 ;
C 176 ; WX 299 ; N degree ; B 0 0 271 1088 ;
C 177 ; WX 299 ; N plusminus ; B 0 0 271 1088 ;
C 178 ; WX 299 ; N twosuperior ; B 0 0 271 1088 ;
C 179 ; WX 500 ; N .notdef ; B 63 0 437 725 ;
C 180 ; WX 500 ; N .notdef ; B 63 0 437 725 ;
C 181 ; WX 500 ; N .notdef ; B 63 0 437 725 ;
C 182 ; WX 500 ; N .notdef ; B 63 0 437 725 ;
C 183 ; WX 500 ; N .notdef ; B 63 0 437 725 ;
C 184 ; WX 500 ; N .notdef ; B 63 0 437 725 ;
C 185 ; WX 500 ; N .notdef ; B 63 0 437 725 ;
C 186 ; WX 500 ; N .notdef ; B 63 0 437 725 ;
C 187 ; WX 500 ; N .notdef ; B 63 0 437 725 ;
C 188 ; WX 500 ; N .notdef ; B 63 0 437 725 ;
C 189 ; WX 500 ; N .notdef ; B 63 0 437 725 ;
C 190 ; WX 500 ; N .notdef ; B 63 0 437 725 ;
C 191 ; WX 500 ; N .notdef ; B 63 0 437 725 ;
C 192 ; WX 500 ; N .notdef ; B 63 0 437 725 ;
C 193 ; WX 500 ; N .notdef ; B 63 0 437 725 ;
C 194 ; WX 500 ; N .notdef ; B 63 0 437 725 ;
C 195 ; WX 500 ; N .notdef ; B 63 0 437 725 ;
C 196 ; WX 500 ; N .notdef ; B 63 0 437 725 ;
C 197 ; WX 500 ; N .notdef ; B 63 0 437 725 ;
C 198 ; WX 500 ; N .notdef ; B 63 0 437 725 ;
C 199 ; WX 500 ; N .notdef ; B 63 0 437 725 ;
C 200 ; WX 500 ; N .notdef ; B 63 0 437 725 ;
C 201 ; WX 500 ; N .notdef ; B 63 0 437 725 ;
C 202 ; WX 500 ; N .notdef ; B 63 0 437 725 ;
C 203 ; WX 500 ; N .notdef ; B 63 0 437 725 ;
C 204 ; WX 500 ; N .notdef ; B 63 0 437 725 ;
C 205 ; WX 500 ; N .notdef ; B 63 0 437 725 ;
C 206 ; WX 500 ; N .notdef ; B 63 0 437 725 ;
C 207 ; WX 500 ; N .notdef ; B 63 0 437 725 ;
C 208 ; WX 500 ; N .notdef ; B 63 0 437 725 ;
C 209 ; WX 500 ; N .notdef ; B 63 0 437 725 ;
C 210 ; WX 500 ; N .notdef ; B 63 0 437 725 ;
C 211 ; WX 500 ; N .notdef ; B 63 0 437 725 ;
C 212 ; WX 500 ; N .notdef ; B 63 0 437 725 ;
C 213 ; WX 500 ; N .notdef ; B 63 0 437 725 ;
C 214 ; WX 500 ; N .notdef ; B 63 0 437 725 ;
C 215 ; WX 500 ; N .notdef ; B 63 0 437 725 ;
C 216 ; WX 500 ; N .notdef ; B 63 0 437 725 ;
C 217 ; WX 500 ; N .notdef ; B 63 0 437 725 ;
C 218 ; WX 500 ; N .notdef ; B 63 0 437 725 ;
C 219 ; WX 500 ; N .notdef ; B 63 0 437 725 ;
C 220 ; WX 500 ; N .notdef ; B 63 0 437 725 ;
C 221 ; WX 500 ; N .notdef ; B 63 0 437 725 ;
C 222 ; WX 500 ; N .notdef ; B 63 0 437 725 ;
C 223 ; WX 500 ; N .notdef ; B 63 0 437 725 ;
C 224 ; WX 500 ; N .notdef ; B 63 0 437 725 ;
C 225 ; WX 500 ; N .notdef ; B 63 0 437 725 ;
C 226 ; WX 500 ; N .notdef ; B 63 0 437 725 ;
C 227 ; WX 500 ; N .notdef ; B 63 0 437 725 ;
C 228 ; WX 500 ; N .notdef ; B 63 0 437 725 ;
C 229 ; WX 500 ; N .notdef ; B 63 0 437 725 ;
C 230 ; WX 500 ; N .notdef ; B 63 0 437 725 ;
C 231 ; WX 500 ; N .notdef ; B 63 0 437 725 ;
C 232 ; WX 500 ; N .notdef ; B 63 0 437 725 ;
C 233 ; WX 500 ; N .notdef ; B 63 0 437 725 ;
C 234 ; WX 500 ; N .notdef ; B 63 0 437 725 ;
C 235 ; WX 500 ; N .notdef ; B 63 0 437 725 ;
C 236 ; WX 500 ; N .notdef ; B 63 0 437 725 ;
C 237 ; WX 500 ; N .notdef ; B 63 0 437 725 ;
C 238 ; WX 500 ; N .notdef ; B 63 0 437 725 ;
C 239 ; WX 500 ; N .notdef ; B 63 0 437 725 ;
C 240 ; WX 500 ; N .notdef ; B 63 0 437 725 ;
C 241 ; WX 500 ; N .notdef ; B 63 0 437 725 ;
C 242 ; WX 500 ; N .notdef ; B 63 0 437 725 ;
C 243 ; WX 500 ; N .notdef ; B 63 0 437 725 ;
C 244 ; WX 500 ; N .notdef ; B 63 0 437 725 ;
C 245 ; WX 500 ; N .notdef ; B 63 0 437 725 ;
C 246 ; WX 500 ; N .notdef ; B 63 0 437 725 ;
C 247 ; WX 500 ; N .notdef ; B 63 0 437 725 ;
C 248 ; WX 500 ; N .notdef ; B 63 0 437 725 ;
C 249 ; WX 500 ; N .notdef ; B 63 0 437 725 ;
C 250 ; WX 500 ; N .notdef ; B 63 0 437 725 ;
C 251 ; WX 500 ; N .notdef ; B 63 0 437 725 ;
C 252 ; WX 500 ; N .notdef ; B 63 0 437 725 ;
C 253 ; WX 500 ; N .notdef ; B 63 0 437 725 ;
C 254 ; WX 500 ; N .notdef ; B 63 0 437 725 ;
C 255 ; WX 500 ; N .notdef ; B 63 0 437 725 ;
C -1 ; WX 0 ; N .null ; B 0 -209 282 1088 ;
C -1 ; WX 299 ; N CR ; B 0 -209 282 1088 ;
C -1 ; WX 299 ; N _114 ; B 0 0 0 86 ;
C -1 ; WX 299 ; N _115 ; B 0 0 0 86 ;
C -1 ; WX 299 ; N glyph114 ; B 0 0 0 86 ;
C -1 ; WX 299 ; N glyph115 ; B 0 0 0 86 ;
C -1 ; WX 299 ; N glyph116 ; B 0 0 0 86 ;
C -1 ; WX 299 ; N glyph117 ; B 0 0 0 86 ;
C -1 ; WX 299 ; N glyph118 ; B 0 0 0 86 ;
C -1 ; WX 299 ; N glyph119 ; B 0 0 0 86 ;
C -1 ; WX 299 ; N glyph120 ; B 0 0 0 86 ;
C -1 ; WX 299 ; N glyph121 ; B 0 0 0 86 ;
C -1 ; WX 299 ; N glyph122 ; B 0 0 0 86 ;
C -1 ; WX 299 ; N glyph123 ; B 0 0 0 86 ;
C -1 ; WX 299 ; N glyph124 ; B 0 0 0 86 ;
C -1 ; WX 299 ; N glyph125 ; B 0 0 0 86 ;
C -1 ; WX 299 ; N glyph126 ; B 0 0 0 86 ;
C -1 ; WX 299 ; N glyph127 ; B 0 0 0 86 ;
C -1 ; WX 299 ; N glyph128 ; B 0 0 0 86 ;
C -1 ; WX 299 ; N glyph129 ; B 0 0 0 86 ;
C -1 ; WX 299 ; N glyph130 ; B 0 0 0 86 ;
C -1 ; WX 299 ; N glyph131 ; B 0 0 0 86 ;
C -1 ; WX 299 ; N glyph132 ; B 0 0 0 86 ;
C -1 ; WX 299 ; N glyph133 ; B 0 0 0 86 ;
C -1 ; WX 299 ; N glyph134 ; B 0 0 0 86 ;
C -1 ; WX 299 ; N glyph135 ; B 0 0 0 86 ;
C -1 ; WX 299 ; N glyph136 ; B 0 0 0 86 ;
C -1 ; WX 299 ; N glyph137 ; B 0 0 0 86 ;
C -1 ; WX 299 ; N glyph138 ; B 0 0 0 86 ;
C -1 ; WX 299 ; N glyph139 ; B 0 0 0 86 ;
C -1 ; WX 299 ; N glyph140 ; B 0 0 0 86 ;
C -1 ; WX 299 ; N glyph141 ; B 0 0 0 86 ;
C -1 ; WX 299 ; N glyph142 ; B 0 0 0 86 ;
C -1 ; WX 299 ; N glyph143 ; B 0 0 0 86 ;
C -1 ; WX 299 ; N glyph144 ; B 0 0 0 86 ;
C -1 ; WX 299 ; N glyph145 ; B 0 0 0 86 ;
C -1 ; WX 299 ; N glyph146 ; B 0 0 0 86 ;
C -1 ; WX 299 ; N glyph147 ; B 0 0 0 86 ;
C -1 ; WX 299 ; N glyph148 ; B 0 0 0 86 ;
EndCharMetrics
EndFontMetrics
