1712130047250000017590002140000
1712130069331500017640002140000
1712130033950000017650002140000
1712130062750000017550002140000
1712130039077500017630002140000
1712130026600000017570002140000
1712130001797000014300192000000
