1511110001130500014330072000000
1511110001187000014300132000000
1511110052844500000017189000000
1511110002025000000016769000000
1511110002089000000018049000000
1511110002089000000018059000000
1511110002089000000018069000000
1511110002089000000018079000000
1511110002089000000018089000000
1511110000959500014290092000000
1511110002025000000018149000000
1511110002025000000018129000000
1511110002025000000018139000000
1511110002025000000018099000000
1511110002025000000018109000000
1511110002025000000018119000000
1511110009783000016020002070000
