1708170001158500013820141000000
1708170001154000013820151000000
1708170104292500001030073050000
1708170001968500014370032000000
1708170002207500014830032000000
1708170018316500008090052050000
1708170010997000016380051000000
