1812210602210000018880012200000
1812210012393000016500142000000
1812210015709500016500152020000
1812210012992000016500162000000
1812210010383000016370201000000
1812210011395000017520072000000
1812210006447500017420122000000
1812210024683500016910082000000
1812210018240500018590013000000
1812210017793500018590033000000
