1511190001256000003190732000000
1511190001256000003190752000000
1511190001256000003190702000000
1511190001256000003190712000000
1511190001256000003190722000000
1511190001256000003190742000000
1511190002779000000017929000000
1511190022960000016040002070000
1511190003410500000017919000000
