1903140009254000018040082000000
1903140009214000018040092000000
1903140061275500013580052200000
1903140005618000017870112000000
1903140005596500017870122000000
1903140016292000018530062000000
1903140009499000016640092000000
1903140008077000016600261000000
1903140012744500017460233000000
1903140020647000017510112000000
1903140004134500017880102000000
1903140006056000017420162000000
