1809130011105500017970033000000
1809130010708000017970053000000
1809130010430500017970073000000
1809130007947500017990032000000
1809130000400000000023729000000
1809130007184500017980032000000
1809130007137500017980042000000
1809130007097500017980052000000
1809130013986000017950042000000
1809130020336500016920213000000
1809130002904000017670042000000
1809130002886500017670052000000
1809130005000000000023739000000
1809130005746000017870052000000
1809130005725000017870062000000
1809130013250500016570313000000
1809130004213000017880052000000
1809130009746000016640032000000
1809130026467000016560013040000
1809130006563000017460162000000
1809130006197000017420102000000
