1702080003101000012890052000000
1702080003088500012890062000000
1702080003076000012890072000000
1702080058909000016700022000000
1702080000959500014290212000000
1702080005000000000022629000000
1702080017218000016250022000000
