1812140054208000016700242000000
1812140006184500017220152020000
1812140033632000018730012170000
1812140005600000000024009000000
1812140009420500016040092000000
1812140073854500016870203000000
1812140035300500018590002170000
