1812130016801500018530032000000
1812130005682000017870082000000
1812130008175000016600231000000
1812130029296000016560123000000
1812130013031500016570353000000
1812130009638000016640062000000
1812130006512000017460182000000
1812130006461500017460202000000
1812130006486500017460192000000
1812130004413000017880082000000
