1811130001500000000023959000000
1811130016336000018190032000000
1811130004457500017220122000000
1811130004421000017220132000000
1811130025271000016040082060000
1811130016962000017150182000000
1811130007490500017490062000000
1811130005005000014330313000000
1811130002519500016030122000000
