1805170010669500016370131000000
1805170047281500016460102000000
1805170024550000017970002060000
1805170033000000017990002060000
1805170030409500017980002060000
1805170025570000017670002140000
1805170005014000016940012000000
1805170008403000016600161000000
1805170004246500017860012000000
1805170003966000017860192000000
1805170003950500017860202000000
1805170003935000017860212000000
1805170003919500017860222000000
1805170003904000017860232000000
1805170003888000017860242000000
1805170003872500017860252000000
1805170003857000017860262000000
1805170003841500017860272000000
1805170003826000017860282000000
1805170003810500017860292000000
1805170003795000017860302000000
1805170003779000017860312000000
1805170003763500017860322000000
1805170003748000017860332000000
1805170003732500017860342000000
1805170003717000017860352000000
1805170003701500017860362000000
1805170005831500000023479000000
1805170006291000017420062000000
1805170005814500017440062000000
1805170020071500017460103000000
1805170004276000017880012000000
1805170025286000016910012000000
