1802210119000000017810002140000
1802210005438000016760071000000
1802210000400000000023319000000
1802210013907000016570193000000
1802210001140500013820181000000
1802210001136000013820191000000
1802210001744000014300212000000
1802210010127000013650032020000
