1211190001870500001850012010000
1211190000812000001850022000000
1211190000753000001850032000000
1211190001562500001980012010000
1211190000516000001980022000000
1211190000479000001980032000000
1211190001661500002250032010000
1211190001848000002760022010000
1211190001457000004540022000000
1211190000742500004880113000000
1211190000739000004880133000000
1211190008283500011670002070000
