1010040001661500001700082000000
1010040001369000003310052000000
1010040001441000004070302000000
1010040001307500004310272000000
1010040001307500004310282000000
1010040001465000005170182000000
1010040001287000005340122000000
1010040001333500006590012002000
