1206070012442000004330133000000
1206070002767000004390202000000
1206070002737500004390212000000
1206070002707000004390222000000
1206070002677500004390232000000
1206070002647000004390242000000
1206070008344500004810242000000
1206070008256500005560153000000
1206070002205000008520122000000
1206070000950000010280002007000
1206070001000000010580002007000
