1208100171342000000001789000000
1208100000770000007410172000000
1208100000767000007410182000000
1208100070689500007530013000000
1208100013871000007980022002000
1208100014035500008440022002000
1208100010973500008890022002000
1208100011842000009000013002000
1208100002600000011120012007000
