1201160002900000000210072004000
1201160009570000000910013003000
1201160000772500002320032003000
1201160001935000002430023003000
1201160001085500004920302000000
1201160004835500005370002007000
1201160010277500006460013003000
1201160001038500008590012003000
