1112050071550500000620042004000
1112050017614500000670042004000
1112050002406000003660102000000
1112050006931500006760222000000
1112050006931500006760232000000
1112050006931500006760242000000
1112050002222500008520072000000
