1308070005000000000005269000000
1308070010000000000005299000000
1308070001000000000005309000000
1308070002080000000005319000000
1308070002441500003660252000000
1308070000745500007410282000000
1308070002926000011890082000000
