1003030001307500004310252000000
1003030001307500004310262000000
1003030002040000006240012003000
1003030002024000006970032003000
1003030160769500007290011004005
1003040003636000002590002007000
1003040001000000006270052000000
1003040001000000006270092000000
1003040001000000006270122000000
1003050001496000006980032003000
1003050002050000007220002007000
1003050001260500007240002007000
1003050003301500007260002007000
