1407140002057500000008419000000
1407140002641500000008549000000
1407140002107500000009679000000
1407140003000000000009749000000
1407140004144500000010299000000
1407140005121500000010359000000
1407140001097500000010499000000
1407140005000000000010979000000
1407140027443000009910212000000
