1108310000500000000000379000000
1108310000259500004290182000000
1108310000259500004290192000000
1108310000260000004290202000000
1108310000259500004290212000000
1108310000260000004290222000000
1108310000260000004290232000000
1108310000259500004290242000000
1108310002331000009280012004000
