1208210903527500000001699000000
1208210765000000000001709000000
1208210765000000000001719000000
1208210005000000000001889000000
1208210006664500001930272000000
1208210005513000002800003016000
1208210130360500003720023003000
1208211575953000006520043004000
1208210001537000009140022002000
