1302150231481000000002679000000
1302150042940000000002689000000
1302150008207000004010022000000
1302150001227500004030322000000
1302150001669500004280072000000
1302150001831500004890292000000
1302150091178000005350062010000
1302150009911000005560313010000
1302150001841500005700262000000
1302150006296000008920022050000
1302150097000000012190002070000
