1012070003581500002160013000000
1012070003310000002170013003000
1012070001358500003310072000000
1012070001266500004280052000000
1012070001473000004350232000000
1012070007551000004860142000000
1012070001000000004920222000000
1012070001061000005170282000000
1012070001937000007240012000000
