1409120013000000000010909000000
1409120002837000000010989000000
1409120002120000000012079000000
1409120002686000001180232000000
1409120027253000009910232000000
1409120009250000015160002070000
1409120009250000015210002070000
