1212120014636500001280093010000
1212120001132500001590032010000
1212120000130000001590062000000
1212120000130000001590072000000
1212120000129500001590082000000
1212120003330000010140013010000
1212120001905000011390022000000
1212120001897500011390032000000
