1203200000400000000000999000000
1203200000200000000001009000000
1203200001000000000001019000000
1203200000400000000001029000000
1203200000600000000001039000000
1203200001103000004030292000000
1203200122176000005920013002000
