1404140002057500000008399000000
1404140004000000000009339000000
1404140018450000000009519000000
1404140017420000000009709000000
1404140012304000000920032010000
1404140002804500001180222000000
1404140002856500011890142000000
1404140008890000014060002070000
1404140000959500014290052000000
1404140000899000014330052000000
1404140033240500014660002070000
