1403110039473500000008149000000
1403110039473500000008159000000
1403110039473500000008169000000
1403110099910500000510072050000
1403110103641000001010052050000
1403110012968500001080042050000
1403110009704000004810322000000
1403110009704000004810332000000
1403110091178000005350072010000
1403110005358000007600042050000
1403110192018500008810022050000
1403110009250000013800002070000
