1301080016925000002590022010000
1301080003175500004240032010000
1301080002103000007220032010000
1301080003126000007260032010000
1301080001767000007410212010000
1301080001716500009950012010000
1301080001889500011390042000000
